   | 1 | 2 | 3 | 4 | 5 | 6 | 7 | 8 | 9 | 10
1 | 0 | 10,8549265700582 | 10,8549265700582 | 9,64367378339402 | 9,64367378339402 | 8,82175224958616 | 10,8477167320424 | 9,64367378339402 | 9,64367378339402 | 8,1368176380796
2 | 10,8549265700582 | 0 | 8,46126034879324 | 10,8477167320424 | 10,8549265700582 | 10,8477167320424 | 9,06688674212534 | 10,8549265700582 | 10,8477167320424 | 10,8621364080741
3 | 10,8549265700582 | 8,46126034879324 | 0 | 10,8477167320424 | 10,8549265700582 | 10,8477167320424 | 9,06688674212534 | 10,8549265700582 | 10,8477167320424 | 10,8621364080741
4 | 9,64367378339402 | 10,8477167320424 | 10,8477167320424 | 0 | 9,04525722807777 | 9,63646394537816 | 10,8405068940265 | 9,00199819998262 | 9,00199819998262 | 9,65088362140988
5 | 9,64367378339402 | 10,8549265700582 | 10,8549265700582 | 9,04525722807777 | 0 | 9,63646394537816 | 10,8405068940265 | 9,04525722807777 | 9,04525722807777 | 9,65088362140988
6 | 8,82175224958616 | 10,8477167320424 | 10,8477167320424 | 9,63646394537816 | 9,63646394537816 | 0 | 10,8332970560107 | 9,63646394537816 | 9,63646394537816 | 8,82175224958616
7 | 10,8477167320424 | 9,06688674212534 | 9,06688674212534 | 10,8405068940265 | 10,8405068940265 | 10,8332970560107 | 0 | 10,8405068940265 | 10,8405068940265 | 10,8477167320424
8 | 9,64367378339402 | 10,8549265700582 | 10,8549265700582 | 9,00199819998262 | 9,04525722807777 | 9,63646394537816 | 10,8405068940265 | 0 | 8,92989981982403 | 9,65088362140988
9 | 9,64367378339402 | 10,8477167320424 | 10,8477167320424 | 9,00199819998262 | 9,04525722807777 | 9,63646394537816 | 10,8405068940265 | 8,92989981982403 | 0 | 9,65088362140988
10 | 8,1368176380796 | 10,8621364080741 | 10,8621364080741 | 9,65088362140988 | 9,65088362140988 | 8,82175224958616 | 10,8477167320424 | 9,65088362140988 | 9,65088362140988 | 0
