 | 1 | 2 | 3 | 4 | 5 | 6 | 7 | 8 | 9 | 10
1 | 0 | 9,243617326924138 | 9,23631151982793 | 11,379511559479983 | 9,243617326924138 | 9,24361731927005 | 9,24361731927005 | 9,243617326286296 | 9,243617348610716 | 11,379511559479983
2 | 9,243617326924138 | 0 | 9,243617326924138 | 11,37951155373942 | 9,219147059841504 | 9,237997799285603 | 9,237997799285603 | 9,238509901685507 | 9,23735819447443 | 11,37951155373942
3 | 9,23631151982793 | 9,243617326924138 | 0 | 11,379511559479983 | 9,243617326924138 | 9,24361731927005 | 9,24361731927005 | 9,243617326286296 | 9,243617348610716 | 11,379511559479983
4 | 11,379511559479983 | 11,37951155373942 | 11,379511559479983 | 0 | 11,37951155373942 | 11,379511546085332 | 11,379511546085332 | 11,379511553101578 | 11,379511575425997 | 9,223934236824007
5 | 9,243617326924138 | 9,219147059841504 | 9,243617326924138 | 11,37951155373942 | 0 | 9,237997799285603 | 9,237997799285603 | 9,238509901685507 | 9,23735819447443 | 11,37951155373942
6 | 9,24361731927005 | 9,237997799285603 | 9,24361731927005 | 11,379511546085332 | 9,237997799285603 | 0 | 9,229761611820125 | 9,23850989403142 | 9,237997820972181 | 11,379511546085332
7 | 9,24361731927005 | 9,237997799285603 | 9,24361731927005 | 11,379511546085332 | 9,237997799285603 | 9,229761611820125 | 0 | 9,23850989403142 | 9,237997820972181 | 11,379511546085332
8 | 9,243617326286296 | 9,238509901685507 | 9,243617326286296 | 11,379511553101578 | 9,238509901685507 | 9,23850989403142 | 9,23850989403142 | 0 | 9,238509923372085 | 11,379511553101578
9 | 9,243617348610716 | 9,23735819447443 | 9,243617348610716 | 11,379511575425997 | 9,23735819447443 | 9,237997820972181 | 9,237997820972181 | 9,238509923372085 | 0 | 11,379511575425997
10 | 11,379511559479983 | 11,37951155373942 | 11,379511559479983 | 9,223934236824007 | 11,37951155373942 | 11,379511546085332 | 11,379511546085332 | 11,379511553101578 | 11,379511575425997 | 0