   | 1 | 2 | 3 | 4 | 5 | 6 | 7 | 8 | 9 | 10
1 | 0 | 10,7983864779074 | 10,7206979961767 | 10,8195742456522 | 10,643009514446 | 8,96211327336309 | 10,756010942418 | 9,39293121750619 | 10,7630735316662 | 10,6571346929425
2 | 10,7983864779074 | 0 | 9,41411898525093 | 9,0821772905833 | 9,4988700562299 | 10,8972627273829 | 9,46355710998867 | 10,9537634413689 | 8,19229104530411 | 9,5129952347264
3 | 10,7206979961767 | 9,41411898525093 | 0 | 9,41411898525093 | 9,42824416374743 | 10,8266368349004 | 8,83498666689464 | 10,8619497811417 | 9,37174344976145 | 9,42118157449918
4 | 10,8195742456522 | 9,0821772905833 | 9,41411898525093 | 0 | 9,49180746698166 | 10,9255130843759 | 9,44236934224392 | 10,9467008521206 | 9,01861398734907 | 9,48474487773341
5 | 10,643009514446 | 9,4988700562299 | 9,42824416374743 | 9,49180746698166 | 0 | 10,7630735316662 | 9,44943193149217 | 10,784261299411 | 9,44236934224392 | 8,65842193568845
6 | 8,96211327336309 | 10,8972627273829 | 10,8266368349004 | 10,9255130843759 | 10,7630735316662 | 0 | 10,8619497811417 | 9,49180746698166 | 10,8619497811417 | 10,7630735316662
7 | 10,756010942418 | 9,46355710998867 | 8,83498666689464 | 9,44236934224392 | 9,44943193149217 | 10,8619497811417 | 0 | 10,8972627273829 | 9,40705639600269 | 9,44943193149217
8 | 9,39293121750619 | 10,9537634413689 | 10,8619497811417 | 10,9467008521206 | 10,784261299411 | 9,49180746698166 | 10,8972627273829 | 0 | 10,9184504951277 | 10,7983864779074
9 | 10,7630735316662 | 8,19229104530411 | 9,37174344976145 | 9,01861398734907 | 9,44236934224392 | 10,8619497811417 | 9,40705639600269 | 10,9184504951277 | 0 | 9,45649452074042
10 | 10,6571346929425 | 9,5129952347264 | 9,42118157449918 | 9,48474487773341 | 8,65842193568845 | 10,7630735316662 | 9,44943193149217 | 10,7983864779074 | 9,45649452074042 | 0
