   | 1 | 2 | 3 | 4 | 5 | 6 | 7 | 8 | 9 | 10
1 | 0 | 9,83560887001916 | 10,472128565328 | 9,23013891594492 | 9,21461404532763 | 10,4410788240934 | 10,4255539534761 | 10,5342280477971 | 9,14475212754983 | 10,5187031771798
2 | 9,83560887001916 | 0 | 10,5652777890317 | 9,97533270557475 | 9,95204539964882 | 10,5342280477971 | 10,4954158712539 | 10,580802659649 | 9,90547078779695 | 10,6351397068095
3 | 10,472128565328 | 10,5652777890317 | 0 | 10,6273772715009 | 10,5885650949576 | 9,5251114576734 | 9,51734902236475 | 9,64154798730306 | 10,5497529184144 | 9,67259772853763
4 | 9,23013891594492 | 9,97533270557475 | 10,6273772715009 | 0 | 8,56256947940153 | 10,6118524008836 | 10,5963275302663 | 10,7050016245873 | 8,57033191471017 | 10,7438138011305
5 | 9,21461404532763 | 9,95204539964882 | 10,5885650949576 | 8,56256947940153 | 0 | 10,5575153537231 | 10,5497529184144 | 10,6584270127354 | 8,54704460878424 | 10,68947675397
6 | 10,4410788240934 | 10,5342280477971 | 9,5251114576734 | 10,6118524008836 | 10,5575153537231 | 0 | 8,98174098606831 | 9,11370238631526 | 10,5031783065626 | 9,26895109248814
7 | 10,4255539534761 | 10,4954158712539 | 9,51734902236475 | 10,5963275302663 | 10,5497529184144 | 8,98174098606831 | 0 | 8,36074616137678 | 10,5031783065626 | 9,2611886571795
8 | 10,5342280477971 | 10,580802659649 | 9,64154798730306 | 10,7050016245873 | 10,6584270127354 | 9,11370238631526 | 8,36074616137678 | 0 | 10,6118524008836 | 9,3853876221178
9 | 9,14475212754983 | 9,90547078779695 | 10,5497529184144 | 8,57033191471017 | 8,54704460878424 | 10,5031783065626 | 10,5031783065626 | 10,6118524008836 | 0 | 10,6351397068095
10 | 10,5187031771798 | 10,6351397068095 | 9,67259772853763 | 10,7438138011305 | 10,68947675397 | 9,26895109248814 | 9,2611886571795 | 9,3853876221178 | 10,6351397068095 | 0
