  | 1 | 2 | 3 | 4 | 5 | 6 | 7 | 8 | 9 | 10
1 | 0 | 11,2511466044688 | 8,42411999737414 | 10,0497102489462 | 9,34511198973572 | 10,1281322622081 | 9,34511198973572 | 10,0497102489462 | 9,48846281059578 | 8,42411999737414
2 | 11,2511466044688 | 0 | 11,2511468677115 | 11,2511463412261 | 11,251143972042 | 11,2511495878859 | 11,251143972042 | 11,2511463412261 | 11,2511445862749 | 11,2511468677115
3 | 8,42411999737414 | 11,2511468677115 | 0 | 10,0497105121889 | 9,3451122529784 | 10,1281325254508 | 9,3451122529784 | 10,0497105121889 | 9,48846307383846 | 8,38204477873806
4 | 10,0497102489462 | 11,2511463412261 | 10,0497105121889 | 0 | 10,0497076165194 | 10,1281319989654 | 10,0497076165194 | 9,23769054835479 | 10,0497082307523 | 10,0497105121889
5 | 9,34511198973572 | 11,251143972042 | 9,3451122529784 | 10,0497076165194 | 0 | 10,1281296297813 | 9,13716694272668 | 10,0497076165194 | 9,48846017816896 | 9,3451122529784
6 | 10,1281322622081 | 11,2511495878859 | 10,1281325254508 | 10,1281319989654 | 10,1281296297813 | 0 | 10,1281296297813 | 10,1281319989654 | 10,1281302440142 | 10,1281325254508
7 | 9,34511198973572 | 11,251143972042 | 9,3451122529784 | 10,0497076165194 | 9,13716694272668 | 10,1281296297813 | 0 | 10,0497076165194 | 9,48846017816896 | 9,3451122529784
8 | 10,0497102489462 | 11,2511463412261 | 10,0497105121889 | 9,23769054835479 | 10,0497076165194 | 10,1281319989654 | 10,0497076165194 | 0 | 10,0497082307523 | 10,0497105121889
9 | 9,48846281059578 | 11,2511445862749 | 9,48846307383846 | 10,0497082307523 | 9,48846017816896 | 10,1281302440142 | 9,48846017816896 | 10,0497082307523 | 0 | 9,48846307383846
10 | 8,42411999737414 | 11,2511468677115 | 8,38204477873806 | 10,0497105121889 | 9,3451122529784 | 10,1281325254508 | 9,3451122529784 | 10,0497105121889 | 9,48846307383846 | 0
