  | 1 | 2 | 3 | 4 | 5 | 6 | 7 | 8 | 9 | 10
1 | 0 | 11,2508954892084 | 11,2508963216386 | 11,2508954892084 | 11,2508968210966 | 11,2508954892084 | 11,2508954892084 | 11,2508968210966 | 11,2508971540687 | 11,2508971540687
2 | 11,2508954892084 | 0 | 10,0790011580328 | 8,29386885505306 | 10,0790016574909 | 9,64114872672825 | 9,64114872672825 | 10,0790016574909 | 10,0790019904629 | 10,0790019904629
3 | 11,2508963216386 | 10,0790011580328 | 0 | 10,0790011580328 | 8,46960035352249 | 10,0790011580328 | 10,0790011580328 | 8,46960035352249 | 9,64747602828995 | 9,64747602828995
4 | 11,2508954892084 | 8,29386885505306 | 10,0790011580328 | 0 | 10,0790016574909 | 9,64114872672825 | 9,64114872672825 | 10,0790016574909 | 10,0790019904629 | 10,0790019904629
5 | 11,2508968210966 | 10,0790016574909 | 8,46960035352249 | 10,0790016574909 | 0 | 10,0790016574909 | 10,0790016574909 | 7,93887169267408 | 9,64747652774804 | 9,64747652774804
6 | 11,2508954892084 | 9,64114872672825 | 10,0790011580328 | 9,64114872672825 | 10,0790016574909 | 0 | 9,09968454722168 | 10,0790016574909 | 10,0790019904629 | 10,0790019904629
7 | 11,2508954892084 | 9,64114872672825 | 10,0790011580328 | 9,64114872672825 | 10,0790016574909 | 9,09968454722168 | 0 | 10,0790016574909 | 10,0790019904629 | 10,0790019904629
8 | 11,2508968210966 | 10,0790016574909 | 8,46960035352249 | 10,0790016574909 | 7,93887169267408 | 10,0790016574909 | 10,0790016574909 | 0 | 9,64747652774804 | 9,64747652774804
9 | 11,2508971540687 | 10,0790019904629 | 9,64747602828995 | 10,0790019904629 | 9,64747652774804 | 10,0790019904629 | 10,0790019904629 | 9,64747652774804 | 0 | 8,44082107895701
10 | 11,2508971540687 | 10,0790019904629 | 9,64747602828995 | 10,0790019904629 | 9,64747652774804 | 10,0790019904629 | 10,0790019904629 | 9,64747652774804 | 8,44082107895701 | 0
