  | 1 | 2 | 3 | 4 | 5 | 6 | 7 | 8 | 9 | 10
1 | 0 | 10,3135347762175 | 10,3225309919007 | 9,18600907725883 | 8,05848337830012 | 10,3135347762175 | 10,6224048480068 | 8,06148211686118 | 10,3195322533397 | 10,6164073708846
2 | 10,3135347762175 | 0 | 9,1200368289155 | 10,3165335147786 | 10,3135347762175 | 9,2339888942358 | 10,6194061094457 | 10,3165335147786 | 9,11703809035444 | 10,6164073708846
3 | 10,3225309919007 | 9,1200368289155 | 0 | 10,3255297304618 | 10,3225309919007 | 9,23998637135792 | 10,6284023251289 | 10,3225309919007 | 8,27739129325753 | 10,6254035865678
4 | 9,18600907725883 | 10,3165335147786 | 10,3255297304618 | 0 | 9,18600907725883 | 10,3165335147786 | 10,6224048480068 | 9,18900781581989 | 10,3225309919007 | 10,6194061094457
5 | 8,05848337830012 | 10,3135347762175 | 10,3225309919007 | 9,18600907725883 | 0 | 10,3135347762175 | 10,6194061094457 | 7,91454392736923 | 10,3195322533397 | 10,6134086323236
6 | 10,3135347762175 | 9,2339888942358 | 9,23998637135792 | 10,3165335147786 | 10,3135347762175 | 0 | 10,6164073708846 | 10,3165335147786 | 9,23698763279686 | 10,6104098937625
7 | 10,6224048480068 | 10,6194061094457 | 10,6284023251289 | 10,6224048480068 | 10,6194061094457 | 10,6164073708846 | 0 | 10,6224048480068 | 10,6254035865678 | 9,16801664589247
8 | 8,06148211686118 | 10,3165335147786 | 10,3225309919007 | 9,18900781581989 | 7,91454392736923 | 10,3165335147786 | 10,6224048480068 | 0 | 10,3225309919007 | 10,6164073708846
9 | 10,3195322533397 | 9,11703809035444 | 8,27739129325753 | 10,3225309919007 | 10,3195322533397 | 9,23698763279686 | 10,6254035865678 | 10,3225309919007 | 0 | 10,6194061094457
10 | 10,6164073708846 | 10,6164073708846 | 10,6254035865678 | 10,6194061094457 | 10,6134086323236 | 10,6104098937625 | 9,16801664589247 | 10,6164073708846 | 10,6194061094457 | 0
