  | 1 | 2 | 3 | 4 | 5 | 6 | 7 | 8 | 9 | 10
1 | 0 | 11,0820845145789 | 9,49398764546135 | 9,37983269081019 | 9,59135510678145 | 9,49734514412756 | 9,58128261078282 | 8,94671536286904 | 11,0820845145789 | 9,37983269081019
2 | 11,0820845145789 | 0 | 11,0686545199141 | 11,0686545199141 | 11,0753695172465 | 11,0720120185803 | 11,0619395225816 | 11,0820845145789 | 9,04744032285535 | 11,0686545199141
3 | 9,49398764546135 | 11,0686545199141 | 0 | 9,48391514946271 | 9,58128261078282 | 8,51024053626167 | 9,57121011478419 | 9,49734514412756 | 11,0686545199141 | 9,48727264812892
4 | 9,37983269081019 | 11,0686545199141 | 9,48391514946271 | 0 | 9,58128261078282 | 9,48391514946271 | 9,57121011478419 | 9,38654768814261 | 11,0686545199141 | 8,4867380455982
5 | 9,59135510678145 | 11,0753695172465 | 9,58128261078282 | 9,58128261078282 | 0 | 9,58128261078282 | 9,43019517080335 | 9,59135510678145 | 11,0720120185803 | 9,58128261078282
6 | 9,49734514412756 | 11,0720120185803 | 8,51024053626167 | 9,48391514946271 | 9,58128261078282 | 0 | 9,5745676134504 | 9,49734514412756 | 11,0720120185803 | 9,48727264812892
7 | 9,58128261078282 | 11,0619395225816 | 9,57121011478419 | 9,57121011478419 | 9,43019517080335 | 9,5745676134504 | 0 | 9,58464010944903 | 11,0619395225816 | 9,57121011478419
8 | 8,94671536286904 | 11,0820845145789 | 9,49734514412756 | 9,38654768814261 | 9,59135510678145 | 9,49734514412756 | 9,58464010944903 | 0 | 11,0820845145789 | 9,38654768814261
9 | 11,0820845145789 | 9,04744032285535 | 11,0686545199141 | 11,0686545199141 | 11,0720120185803 | 11,0720120185803 | 11,0619395225816 | 11,0820845145789 | 0 | 11,0686545199141
10 | 9,37983269081019 | 11,0686545199141 | 9,48727264812892 | 8,4867380455982 | 9,58128261078282 | 9,48727264812892 | 9,57121011478419 | 9,38654768814261 | 11,0686545199141 | 0
