  | 1 | 2 | 3 | 4 | 5 | 6 | 7 | 8 | 9 | 10
1 | 0 | 10,7091348805234 | 10,7091348805234 | 10,7061746699832 | 10,7091348805234 | 9,84475340277966 | 9,84179319223944 | 9,84179319223944 | 9,83883298169922 | 9,83883298169922
2 | 10,7091348805234 | 0 | 9,4007218217469 | 8,3409664483487 | 9,39480140066646 | 10,7209757226843 | 10,7180155121441 | 10,7180155121441 | 10,7150553016039 | 10,7150553016039
3 | 10,7091348805234 | 9,4007218217469 | 0 | 9,39776161120668 | 9,26455213689685 | 10,7239359332245 | 10,7209757226843 | 10,7209757226843 | 10,7180155121441 | 10,7209757226843
4 | 10,7061746699832 | 8,3409664483487 | 9,39776161120668 | 0 | 9,39184119012624 | 10,7180155121441 | 10,7180155121441 | 10,7180155121441 | 10,7150553016039 | 10,7150553016039
5 | 10,7091348805234 | 9,39480140066646 | 9,26455213689685 | 9,39184119012624 | 0 | 10,7209757226843 | 10,7180155121441 | 10,7180155121441 | 10,7150553016039 | 10,7150553016039
6 | 9,84475340277966 | 10,7209757226843 | 10,7239359332245 | 10,7180155121441 | 10,7209757226843 | 0 | 8,71395297641622 | 8,17223444755626 | 8,99221276719675 | 8,99221276719675
7 | 9,84179319223944 | 10,7180155121441 | 10,7209757226843 | 10,7180155121441 | 10,7180155121441 | 8,71395297641622 | 0 | 8,71099276587601 | 8,98925255665654 | 8,99221276719675
8 | 9,84179319223944 | 10,7180155121441 | 10,7209757226843 | 10,7180155121441 | 10,7180155121441 | 8,17223444755626 | 8,71099276587601 | 0 | 8,98925255665654 | 8,98925255665654
9 | 9,83883298169922 | 10,7150553016039 | 10,7180155121441 | 10,7150553016039 | 10,7150553016039 | 8,99221276719675 | 8,98925255665654 | 8,98925255665654 | 0 | 8,86492371396736
10 | 9,83883298169922 | 10,7150553016039 | 10,7209757226843 | 10,7150553016039 | 10,7150553016039 | 8,99221276719675 | 8,99221276719675 | 8,98925255665654 | 8,86492371396736 | 0
