  | 1 | 2 | 3 | 4 | 5 | 6 | 7 | 8 | 9 | 10
1 | 0 | 10,4321999330118 | 10,4321999330118 | 10,2729385754493 | 10,2697533482981 | 10,4321999330118 | 10,2729385754493 | 8,51469318795948 | 10,422644251558 | 10,4321999330118
2 | 10,4321999330118 | 0 | 8,93514317192444 | 10,4258294787093 | 10,422644251558 | 7,90312957491954 | 10,4258294787093 | 10,4417556144655 | 9,94804540602184 | 8,73447386139571
3 | 10,4321999330118 | 8,93514317192444 | 0 | 10,422644251558 | 10,4194590244068 | 8,93514317192444 | 10,422644251558 | 10,4385703873143 | 9,94486017887059 | 8,93195794477319
4 | 10,2729385754493 | 10,4258294787093 | 10,422644251558 | 0 | 9,13899770960442 | 10,422644251558 | 8,94151362622694 | 10,2793090297518 | 10,4130885701043 | 10,422644251558
5 | 10,2697533482981 | 10,422644251558 | 10,4194590244068 | 9,13899770960442 | 0 | 10,4194590244068 | 9,13581248245317 | 10,2761238026006 | 10,4067181158018 | 10,4194590244068
6 | 10,4321999330118 | 7,90312957491954 | 8,93514317192444 | 10,422644251558 | 10,4194590244068 | 0 | 10,4258294787093 | 10,4417556144655 | 9,94804540602184 | 8,73447386139571
7 | 10,2729385754493 | 10,4258294787093 | 10,422644251558 | 8,94151362622694 | 9,13581248245317 | 10,4258294787093 | 0 | 10,2824942569031 | 10,4130885701043 | 10,4258294787093
8 | 8,51469318795948 | 10,4417556144655 | 10,4385703873143 | 10,2793090297518 | 10,2761238026006 | 10,4417556144655 | 10,2824942569031 | 0 | 10,4321999330118 | 10,4385703873143
9 | 10,422644251558 | 9,94804540602184 | 9,94486017887059 | 10,4130885701043 | 10,4067181158018 | 9,94804540602184 | 10,4130885701043 | 10,4321999330118 | 0 | 9,94804540602184
10 | 10,4321999330118 | 8,73447386139571 | 8,93195794477319 | 10,422644251558 | 10,4194590244068 | 8,73447386139571 | 10,4258294787093 | 10,4385703873143 | 9,94804540602184 | 0
