 | 1 | 2 | 3 | 4 | 5 | 6 | 7 | 8 | 9 | 10
1 | 0 | 11,018275942324971 | 9,269986959551204 | 11,018275942324971 | 9,096915855370096 | 9,495743270343542 | 9,495743270343542 | 9,086422284575868 | 9,865943906227258 | 9,096915855370096
2 | 11,018275942324971 | 0 | 11,018272438164761 | 9,928462512476647 | 11,018273385235087 | 11,018272438164761 | 11,018272438164761 | 11,018275942324971 | 11,018275279375743 | 11,018273385235087
3 | 9,269986959551204 | 11,018272438164761 | 0 | 11,018272438164761 | 9,26998440246132 | 9,495739766183332 | 9,495739766183332 | 9,269986959551204 | 9,865940402067048 | 9,26998440246132
4 | 11,018275942324971 | 9,928462512476647 | 11,018272438164761 | 0 | 11,018273385235087 | 11,018272438164761 | 11,018272438164761 | 11,018275942324971 | 11,018275279375743 | 11,018273385235087
5 | 9,096915855370096 | 11,018273385235087 | 9,26998440246132 | 11,018273385235087 | 0 | 9,49574071325366 | 9,49574071325366 | 9,096915855370096 | 9,865941349137376 | 8,495753462916708
6 | 9,495743270343542 | 11,018272438164761 | 9,495739766183332 | 11,018272438164761 | 9,49574071325366 | 0 | 8,710365912859162 | 9,495743270343542 | 9,865940402067048 | 9,49574071325366
7 | 9,495743270343542 | 11,018272438164761 | 9,495739766183332 | 11,018272438164761 | 9,49574071325366 | 8,710365912859162 | 0 | 9,495743270343542 | 9,865940402067048 | 9,49574071325366
8 | 9,086422284575868 | 11,018275942324971 | 9,269986959551204 | 11,018275942324971 | 9,096915855370096 | 9,495743270343542 | 9,495743270343542 | 0 | 9,865943906227258 | 9,096915855370096
9 | 9,865943906227258 | 11,018275279375743 | 9,865940402067048 | 11,018275279375743 | 9,865941349137376 | 9,865940402067048 | 9,865940402067048 | 9,865943906227258 | 0 | 9,865941349137376
10 | 9,096915855370096 | 11,018273385235087 | 9,26998440246132 | 11,018273385235087 | 8,495753462916708 | 9,49574071325366 | 9,49574071325366 | 9,096915855370096 | 9,865941349137376 | 0