 | 1 | 2 | 3 | 4 | 5 | 6 | 7 | 8 | 9 | 10
1 | 0 | 10,704922540256689 | 10,704923090331482 | 9,655512953283989 | 9,655511853134403 | 8,1688623901761 | 9,655511853134403 | 10,704923640406275 | 10,704922540256689 | 8,072584724416462
2 | 10,704922540256689 | 0 | 9,048474064928742 | 10,70492474055586 | 10,704923640406275 | 10,704922815294085 | 10,704923640406275 | 9,26975210184009 | 8,828098150677937 | 10,704922540256689
3 | 10,704923090331482 | 9,048474064928742 | 0 | 10,704925290630653 | 10,704924190481067 | 10,704923365368877 | 10,704924190481067 | 9,269752651914883 | 9,048474064928742 | 10,704923090331482
4 | 9,655512953283989 | 10,70492474055586 | 10,704925290630653 | 0 | 9,102270829610815 | 9,655513228321386 | 9,102270829610815 | 10,704925840705448 | 10,70492474055586 | 9,655512953283989
5 | 9,655511853134403 | 10,704923640406275 | 10,704924190481067 | 9,102270829610815 | 0 | 9,6555121281718 | 8,833065326058863 | 10,70492474055586 | 10,704923640406275 | 9,655511853134403
6 | 8,1688623901761 | 10,704922815294085 | 10,704923365368877 | 9,655513228321386 | 9,6555121281718 | 0 | 9,6555121281718 | 10,704923915443672 | 10,704922815294085 | 8,1688623901761
7 | 9,655511853134403 | 10,704923640406275 | 10,704924190481067 | 9,102270829610815 | 8,833065326058863 | 9,6555121281718 | 0 | 10,70492474055586 | 10,704923640406275 | 9,655511853134403
8 | 10,704923640406275 | 9,26975210184009 | 9,269752651914883 | 10,704925840705448 | 10,70492474055586 | 10,704923915443672 | 10,70492474055586 | 0 | 9,26975210184009 | 10,704923640406275
9 | 10,704922540256689 | 8,828098150677937 | 9,048474064928742 | 10,70492474055586 | 10,704923640406275 | 10,704922815294085 | 10,704923640406275 | 9,26975210184009 | 0 | 10,704922540256689
10 | 8,072584724416462 | 10,704922540256689 | 10,704923090331482 | 9,655512953283989 | 9,655511853134403 | 8,1688623901761 | 9,655511853134403 | 10,704923640406275 | 10,704922540256689 | 0