 | 1 | 2 | 3 | 4 | 5 | 6 | 7 | 8 | 9 | 10
1 | 0 | 10,66514375979853 | 10,66514375979853 | 9,374045705889953 | 9,22717019404463 | 10,665140326081904 | 8,875678077703808 | 10,665140326081904 | 9,22717019404463 | 8,875678077703808
2 | 10,66514375979853 | 0 | 8,215326584515218 | 10,665142615226323 | 10,665141470654113 | 10,0470392852686 | 10,66514118451106 | 10,0470392852686 | 10,665141470654113 | 10,66514118451106
3 | 10,66514375979853 | 8,215326584515218 | 0 | 10,665142615226323 | 10,665141470654113 | 10,0470392852686 | 10,66514118451106 | 10,0470392852686 | 10,665141470654113 | 10,66514118451106
4 | 9,374045705889953 | 10,665142615226323 | 10,665142615226323 | 0 | 9,374043416745536 | 10,665139181509694 | 9,374043130602484 | 10,665139181509694 | 9,374043416745536 | 9,374043130602484
5 | 9,22717019404463 | 10,665141470654113 | 10,665141470654113 | 9,374043416745536 | 0 | 10,665138036937487 | 9,22716761875716 | 10,665138036937487 | 8,299795441243944 | 9,22716761875716
6 | 10,665140326081904 | 10,0470392852686 | 10,0470392852686 | 10,665139181509694 | 10,665138036937487 | 0 | 10,665137750794434 | 8,727166686028955 | 10,665138036937487 | 10,665137750794434
7 | 8,875678077703808 | 10,66514118451106 | 10,66514118451106 | 9,374043130602484 | 9,22716761875716 | 10,665137750794434 | 0 | 10,665137750794434 | 9,22716761875716 | 8,621602791204591
8 | 10,665140326081904 | 10,0470392852686 | 10,0470392852686 | 10,665139181509694 | 10,665138036937487 | 8,727166686028955 | 10,665137750794434 | 0 | 10,665138036937487 | 10,665137750794434
9 | 9,22717019404463 | 10,665141470654113 | 10,665141470654113 | 9,374043416745536 | 8,299795441243944 | 10,665138036937487 | 9,22716761875716 | 10,665138036937487 | 0 | 9,22716761875716
10 | 8,875678077703808 | 10,66514118451106 | 10,66514118451106 | 9,374043130602484 | 9,22716761875716 | 10,665137750794434 | 8,621602791204591 | 10,665137750794434 | 9,22716761875716 | 0