 | 1 | 2 | 3 | 4 | 5 | 6 | 7 | 8 | 9 | 10
1 | 0 | 10,089213540411112 | 10,089213883883534 | 10,08921385265877 | 10,977390449129654 | 9,509723104701571 | 10,089213883883534 | 10,662433106414209 | 10,089212947140561 | 10,08921385265877
2 | 10,089213540411112 | 0 | 9,525004848534163 | 9,525004817309398 | 10,977392322615598 | 10,089213540411112 | 9,525004848534163 | 10,662434979900155 | 9,525003911791192 | 9,525004817309398
3 | 10,089213883883534 | 9,525004848534163 | 0 | 8,886546130449918 | 10,977392666088022 | 10,089213883883534 | 8,111417518177182 | 10,662435323372577 | 8,866699950359358 | 8,886546130449918
4 | 10,08921385265877 | 9,525004817309398 | 8,886546130449918 | 0 | 10,977392634863257 | 10,08921385265877 | 8,886546130449918 | 10,662435292147812 | 8,886545193706946 | 8,534592405053349
5 | 10,977390449129654 | 10,977392322615598 | 10,977392666088022 | 10,977392634863257 | 0 | 10,977390449129654 | 10,977392666088022 | 10,977392634863257 | 10,97739172934505 | 10,977392634863257
6 | 9,509723104701571 | 10,089213540411112 | 10,089213883883534 | 10,08921385265877 | 10,977390449129654 | 0 | 10,089213883883534 | 10,662433106414209 | 10,089212947140561 | 10,08921385265877
7 | 10,089213883883534 | 9,525004848534163 | 8,111417518177182 | 8,886546130449918 | 10,977392666088022 | 10,089213883883534 | 0 | 10,662435323372577 | 8,866699950359358 | 8,886546130449918
8 | 10,662433106414209 | 10,662434979900155 | 10,662435323372577 | 10,662435292147812 | 10,977392634863257 | 10,662433106414209 | 10,662435323372577 | 0 | 10,662434386629606 | 10,662435292147812
9 | 10,089212947140561 | 9,525003911791192 | 8,866699950359358 | 8,886545193706946 | 10,97739172934505 | 10,089212947140561 | 8,866699950359358 | 10,662434386629606 | 0 | 8,886545193706946
10 | 10,08921385265877 | 9,525004817309398 | 8,886546130449918 | 8,534592405053349 | 10,977392634863257 | 10,08921385265877 | 8,886546130449918 | 10,662435292147812 | 8,886545193706946 | 0