 | 1 | 2 | 3 | 4 | 5 | 6 | 7 | 8 | 9 | 10
1 | 0 | 10,557667315854557 | 8,877611372223566 | 10,557667315854557 | 8,894855651114753 | 10,557667053173855 | 8,877611372223566 | 10,867291949557847 | 8,877611372223566 | 10,557666527812449
2 | 10,557667315854557 | 0 | 10,557667053173855 | 8,698315243779511 | 10,55766566096613 | 8,953001259246008 | 10,557667053173855 | 10,867291082711528 | 10,557667053173855 | 8,975287615420385
3 | 8,877611372223566 | 10,557667053173855 | 0 | 10,557667053173855 | 8,894855388434049 | 10,557666790493151 | 8,472995617465962 | 10,867291686877145 | 8,352620609391604 | 10,557666265131747
4 | 10,557667315854557 | 8,698315243779511 | 10,557667053173855 | 0 | 10,55766566096613 | 8,953001259246008 | 10,557667053173855 | 10,867291082711528 | 10,557667053173855 | 8,975287615420385
5 | 8,894855651114753 | 10,55766566096613 | 8,894855388434049 | 10,55766566096613 | 0 | 10,557665398285428 | 8,894855388434049 | 10,86729029466942 | 8,894855388434049 | 10,557664872924022
6 | 10,557667053173855 | 8,953001259246008 | 10,557666790493151 | 8,953001259246008 | 10,557665398285428 | 0 | 10,557666790493151 | 10,867290820030826 | 10,557666790493151 | 8,975287352739683
7 | 8,877611372223566 | 10,557667053173855 | 8,472995617465962 | 10,557667053173855 | 8,894855388434049 | 10,557666790493151 | 0 | 10,867291686877145 | 8,472995617465962 | 10,557666265131747
8 | 10,867291949557847 | 10,867291082711528 | 10,867291686877145 | 10,867291082711528 | 10,86729029466942 | 10,867290820030826 | 10,867291686877145 | 0 | 10,867291686877145 | 10,86729029466942
9 | 8,877611372223566 | 10,557667053173855 | 8,352620609391604 | 10,557667053173855 | 8,894855388434049 | 10,557666790493151 | 8,472995617465962 | 10,867291686877145 | 0 | 10,557666265131747
10 | 10,557666527812449 | 8,975287615420385 | 10,557666265131747 | 8,975287615420385 | 10,557664872924022 | 8,975287352739683 | 10,557666265131747 | 10,86729029466942 | 10,557666265131747 | 0