 | 1 | 2 | 3 | 4 | 5 | 6 | 7 | 8 | 9 | 10
1 | 0 | 10,739520638567662 | 10,012013171959047 | 10,012013171959047 | 10,739523473699531 | 10,739520896306923 | 8,26975556481697 | 10,739520561245884 | 10,739520561245884 | 10,739523989178052
2 | 10,739520638567662 | 0 | 10,739522700481748 | 10,739522700481748 | 9,311502861956653 | 8,88927698239332 | 10,739520638567662 | 8,242912974445423 | 8,242912974445423 | 9,215726437184498
3 | 10,012013171959047 | 10,739522700481748 | 0 | 9,173785300500901 | 10,739525535613616 | 10,73952295822101 | 10,012013171959047 | 10,73952262315997 | 10,73952262315997 | 10,739526051092138
4 | 10,012013171959047 | 10,739522700481748 | 9,173785300500901 | 0 | 10,739525535613616 | 10,73952295822101 | 10,012013171959047 | 10,73952262315997 | 10,73952262315997 | 10,739526051092138
5 | 10,739523473699531 | 9,311502861956653 | 10,739525535613616 | 10,739525535613616 | 0 | 9,311503119695914 | 10,739523473699531 | 9,311502784634875 | 9,311502784634875 | 9,311506212567043
6 | 10,739520896306923 | 8,88927698239332 | 10,73952295822101 | 10,73952295822101 | 9,311503119695914 | 0 | 10,739520896306923 | 8,88927690507154 | 8,88927690507154 | 9,21572669492376
7 | 8,26975556481697 | 10,739520638567662 | 10,012013171959047 | 10,012013171959047 | 10,739523473699531 | 10,739520896306923 | 0 | 10,739520561245884 | 10,739520561245884 | 10,739523989178052
8 | 10,739520561245884 | 8,242912974445423 | 10,73952262315997 | 10,73952262315997 | 9,311502784634875 | 8,88927690507154 | 10,739520561245884 | 0 | 8,185780866150871 | 9,215726359862721
9 | 10,739520561245884 | 8,242912974445423 | 10,73952262315997 | 10,73952262315997 | 9,311502784634875 | 8,88927690507154 | 10,739520561245884 | 8,185780866150871 | 0 | 9,215726359862721
10 | 10,739523989178052 | 9,215726437184498 | 10,739526051092138 | 10,739526051092138 | 9,311506212567043 | 9,21572669492376 | 10,739523989178052 | 9,215726359862721 | 9,215726359862721 | 0