  | 1 | 2 | 3 | 4 | 5 | 6 | 7 | 8 | 9 | 10
1 | 0 | 8,7734157894082 | 8,95185207004386 | 10,6351009840403 | 9,35928157749529 | 10,7778500085488 | 10,7064754962945 | 10,7035015582839 | 8,96374782208624 | 10,7064754962945
2 | 8,7734157894082 | 0 | 8,91616481391673 | 10,5845440378602 | 9,302776755294 | 10,7213451863475 | 10,6469967360826 | 10,6410488600614 | 8,9310345039697 | 10,6380749220509
3 | 8,95185207004386 | 8,91616481391673 | 0 | 10,6499706740932 | 9,40983852367539 | 10,8135372646759 | 10,7272930623687 | 10,7243191243581 | 8,37193415797797 | 10,7302670003793
4 | 10,6351009840403 | 10,5845440378602 | 10,6499706740932 | 0 | 10,6678143021568 | 9,44849971781312 | 9,34738582545291 | 9,33549007341053 | 10,6707882401674 | 9,36522945351648
5 | 9,35928157749529 | 9,302776755294 | 9,40983852367539 | 10,6678143021568 | 0 | 10,8284069547289 | 10,754058504464 | 10,7570324424746 | 9,41578639969658 | 10,7600063804852
6 | 10,7778500085488 | 10,7213451863475 | 10,8135372646759 | 9,44849971781312 | 10,8284069547289 | 0 | 9,52879604409917 | 9,52582210608857 | 10,8224590787077 | 9,54961361017333
7 | 10,7064754962945 | 10,6469967360826 | 10,7272930623687 | 9,34738582545291 | 10,754058504464 | 9,52879604409917 | 0 | 8,16375849723637 | 10,7391888144111 | 8,7258327812387
8 | 10,7035015582839 | 10,6410488600614 | 10,7243191243581 | 9,33549007341053 | 10,7570324424746 | 9,52582210608857 | 8,16375849723637 | 0 | 10,7362148764005 | 8,71691096720691
9 | 8,96374782208624 | 8,9310345039697 | 8,37193415797797 | 10,6707882401674 | 9,41578639969658 | 10,8224590787077 | 10,7391888144111 | 10,7362148764005 | 0 | 10,754058504464
10 | 10,7064754962945 | 10,6380749220509 | 10,7302670003793 | 9,36522945351648 | 10,7600063804852 | 9,54961361017333 | 8,7258327812387 | 8,71691096720691 | 10,754058504464 | 0
