 | 1 | 2 | 3 | 4 | 5 | 6 | 7 | 8 | 9 | 10
1 | 0 | 10,66886898732058 | 8,564307606132934 | 9,188087378163459 | 10,668868479882011 | 9,188087885602028 | 9,188087378163459 | 10,66886797244344 | 10,66886898732058 | 10,460982315144575
2 | 10,66886898732058 | 0 | 10,66886898732058 | 10,668869748478436 | 8,71294955667178 | 10,668870255917005 | 10,668869748478436 | 8,84955760152445 | 8,438823122171963 | 10,668870255917005
3 | 8,564307606132934 | 10,66886898732058 | 0 | 9,188087378163459 | 10,668868479882011 | 9,188087885602028 | 9,188087378163459 | 10,66886797244344 | 10,66886898732058 | 10,460982315144575
4 | 9,188087378163459 | 10,668869748478436 | 9,188087378163459 | 0 | 10,668869241039866 | 8,649046802681838 | 8,237901805526267 | 10,668868733601295 | 10,668869748478436 | 10,46098307630243
5 | 10,668868479882011 | 8,71294955667178 | 10,668868479882011 | 10,668869241039866 | 0 | 10,668869748478436 | 10,668869241039866 | 8,849557094085881 | 8,71294955667178 | 10,668869748478436
6 | 9,188087885602028 | 10,668870255917005 | 9,188087885602028 | 8,649046802681838 | 10,668869748478436 | 0 | 8,649046802681838 | 10,668869241039866 | 10,668870255917005 | 10,460983583741
7 | 9,188087378163459 | 10,668869748478436 | 9,188087378163459 | 8,237901805526267 | 10,668869241039866 | 8,649046802681838 | 0 | 10,668868733601295 | 10,668869748478436 | 10,46098307630243
8 | 10,66886797244344 | 8,84955760152445 | 10,66886797244344 | 10,668868733601295 | 8,849557094085881 | 10,668869241039866 | 10,668868733601295 | 0 | 8,84955760152445 | 10,668869241039866
9 | 10,66886898732058 | 8,438823122171963 | 10,66886898732058 | 10,668869748478436 | 8,71294955667178 | 10,668870255917005 | 10,668869748478436 | 8,84955760152445 | 0 | 10,668870255917005
10 | 10,460982315144575 | 10,668870255917005 | 10,460982315144575 | 10,46098307630243 | 10,668869748478436 | 10,460983583741 | 10,46098307630243 | 10,668869241039866 | 10,668870255917005 | 0