1, C:\D\subst\setM4_9.fa, 1
2, C:\D\subst\setM4_9.fa, 2
3, C:\D\subst\setM4_9.fa, 3
4, C:\D\subst\setM4_9.fa, 4
5, C:\D\subst\setM4_9.fa, 5
6, C:\D\subst\setM4_9.fa, 6
7, C:\D\subst\setM4_9.fa, 7
8, C:\D\subst\setM4_9.fa, 8
9, C:\D\subst\setM4_9.fa, 9
ten, C:\D\subst\setM4_9.fa, ten