Human, C:\D\fiit\DP-ELKI\data\Mammals16k.fasta, Human
P_Chim, C:\D\fiit\DP-ELKI\data\Mammals16k.fasta, P_Chim
Com_Chim, C:\D\fiit\DP-ELKI\data\Mammals16k.fasta, Com_Chim
Gibbon, C:\D\fiit\DP-ELKI\data\Mammals16k.fasta, Gibbon
Baboon, C:\D\fiit\DP-ELKI\data\Mammals16k.fasta, Baboon
Ver_Monkey, C:\D\fiit\DP-ELKI\data\Mammals16k.fasta, Ver_Monkey
Macaca_Thibet, C:\D\fiit\DP-ELKI\data\Mammals16k.fasta, Macaca_Thibet
Bor_Oran, C:\D\fiit\DP-ELKI\data\Mammals16k.fasta, Bor_Oran
Sum_Oran, C:\D\fiit\DP-ELKI\data\Mammals16k.fasta, Sum_Oran
Gorilla, C:\D\fiit\DP-ELKI\data\Mammals16k.fasta, Gorilla
Cat, C:\D\fiit\DP-ELKI\data\Mammals16k.fasta, Cat
Dog, C:\D\fiit\DP-ELKI\data\Mammals16k.fasta, Dog
Pig, C:\D\fiit\DP-ELKI\data\Mammals16k.fasta, Pig
Sheep, C:\D\fiit\DP-ELKI\data\Mammals16k.fasta, Sheep
Goat, C:\D\fiit\DP-ELKI\data\Mammals16k.fasta, Goat
Cow, C:\D\fiit\DP-ELKI\data\Mammals16k.fasta, Cow
Buffalo, C:\D\fiit\DP-ELKI\data\Mammals16k.fasta, Buffalo
Wolf, C:\D\fiit\DP-ELKI\data\Mammals16k.fasta, Wolf
Tiger, C:\D\fiit\DP-ELKI\data\Mammals16k.fasta, Tiger
Leopard, C:\D\fiit\DP-ELKI\data\Mammals16k.fasta, Leopard
Indian_Rhino, C:\D\fiit\DP-ELKI\data\Mammals16k.fasta, Indian_Rhino
White_Rhino, C:\D\fiit\DP-ELKI\data\Mammals16k.fasta, White_Rhino
Black_Bear, C:\D\fiit\DP-ELKI\data\Mammals16k.fasta, Black_Bear
Brown_Bear, C:\D\fiit\DP-ELKI\data\Mammals16k.fasta, Brown_Bear
Polar_Bear, C:\D\fiit\DP-ELKI\data\Mammals16k.fasta, Polar_Bear
Giant_Panda, C:\D\fiit\DP-ELKI\data\Mammals16k.fasta, Giant_Panda
Rabbit, C:\D\fiit\DP-ELKI\data\Mammals16k.fasta, Rabbit
Hedgehog, C:\D\fiit\DP-ELKI\data\Mammals16k.fasta, Hedgehog
Dormouse, C:\D\fiit\DP-ELKI\data\Mammals16k.fasta, Dormouse
Squirrel, C:\D\fiit\DP-ELKI\data\Mammals16k.fasta, Squirrel
Blue_Whale, C:\D\fiit\DP-ELKI\data\Mammals16k.fasta, Blue_Whale