    | 1 | 2 | 3 | 4 | 5 | 6 | 7 | 8 | 9 | 10
1 | 0 | 9,13335857425025 | 10,6930453832077 | 9,37936067823818 | 10,7014128017107 | 10,7399029268245 | 9,0881745143341 | 8,37359697417871 | 9,32748268351964 | 10,7214946061179
2 | 9,13335857425025 | 0 | 10,6896984158065 | 9,40780990114834 | 10,7365559594233 | 10,7432498942256 | 8,97605110639403 | 9,15511386235803 | 9,34756448792681 | 10,7432498942256
3 | 10,6930453832077 | 10,6896984158065 | 0 | 10,7382294431239 | 9,39776899894476 | 9,19527747117238 | 10,6796575136029 | 10,6813309973035 | 10,7114537039143 | 9,20866534077717
4 | 9,37936067823818 | 9,40780990114834 | 10,7382294431239 | 0 | 10,7516173127286 | 10,7516173127286 | 9,33585010202263 | 9,39107506414236 | 8,48069993101699 | 10,7516173127286
5 | 10,7014128017107 | 10,7365559594233 | 9,39776899894476 | 10,7516173127286 | 0 | 9,42789170555552 | 10,6930453832077 | 10,6963923506089 | 10,7265150572197 | 9,42119777075313
6 | 10,7399029268245 | 10,7432498942256 | 9,19527747117238 | 10,7516173127286 | 9,42789170555552 | 0 | 10,7081067365131 | 10,7348824757227 | 10,7315355083215 | 8,95094885088506
7 | 9,0881745143341 | 8,97605110639403 | 10,6796575136029 | 9,33585010202263 | 10,6930453832077 | 10,7081067365131 | 0 | 9,0915214817353 | 9,28899255840588 | 10,6963923506089
8 | 8,37359697417871 | 9,15511386235803 | 10,6813309973035 | 9,39107506414236 | 10,6963923506089 | 10,7348824757227 | 9,0915214817353 | 0 | 9,34087055312442 | 10,7198211224173
9 | 9,32748268351964 | 9,34756448792681 | 10,7114537039143 | 8,48069993101699 | 10,7265150572197 | 10,7315355083215 | 9,28899255840588 | 9,34087055312442 | 0 | 10,7399029268245
10 | 10,7214946061179 | 10,7432498942256 | 9,20866534077717 | 10,7516173127286 | 9,42119777075313 | 8,95094885088506 | 10,6963923506089 | 10,7198211224173 | 10,7399029268245 | 0
